{
  "fileTypes": [
    "rs"
  ],
  "injectionSelector": "L:source",
  "patterns": [
    {
      "begin": "\/\*sql\*\/(\")",
      "end": "(\")\/\*endsql\*\/",
      "patterns": [
        {
          "include": "source.sql"
        }
      ]
    }
  ],
  "scopeName": "inline.rust-sql"
}
